%YAML 1.1
%TAG !u! tag:unity3d.com,2011:
--- !u!1045 &1
EditorBuildSettings:
  m_ObjectHideFlags: 0
  serializedVersion: 2
  m_Scenes:
  - enabled: 1
    path: Assets/_Scenes/Cutscene.unity
    guid: 98f988b86f5b3c7428ae9b47a973a487
  - enabled: 1
    path: Assets/_Scenes/Levels/Level_Order.unity
    guid: 90fa56dd18175c44a888f94f6482c2a1
  - enabled: 1
    path: Assets/_Scenes/Levels/Level_Chaos.unity
    guid: 2f95d0952ca3b9347a43c359b4928da3
  - enabled: 1
    path: Assets/_Scenes/Levels/Level_X.unity
    guid: af903bc23a83d5047a9ab9d144049f74
  m_configObjects: {}
